<?xml version="1.0" encoding="UTF-8"?>
<svg width="116px" height="56px" viewBox="0 0 116 56" version="1.1" xmlns="http://www.w3.org/2000/svg" xmlns:xlink="http://www.w3.org/1999/xlink">
    <!-- Generator: Sketch 55 (78076) - https://sketchapp.com -->
    <title>splash-purple</title>
    <desc>Created with Sketch.</desc>
    <g id="Web" stroke="none" stroke-width="1" fill="none" fill-rule="evenodd">
        <g id="00-00-00-Homepage" transform="translate(-1593.000000, -639.000000)" fill="#4F439E">
            <g id="section-hello" transform="translate(-336.000000, 0.000000)">
                <path d="M1937.5,639.5 C1945,641 1967,648 1975,651 C1983,654 2007,659.5 2016.5,662 C2026,664.5 2043,670.5 2044.5,677.5 C2046,684.5 2037,691.5 2031.5,693 C2026,694.5 2020.5,695 2010.5,691.5 C2000.5,688 1983.5,680.5 1973.5,674 C1963.5,667.5 1946,656 1940,652.5 C1934,649 1931,646.5 1930,643.5 C1929,640.5 1930,638 1937.5,639.5 Z" id="splash-purple"></path>
            </g>
        </g>
    </g>
</svg>